module gitlab.com/shakhbozpulatov/booking

go 1.17

require (
	github.com/alexedwards/scs/v2 v2.5.0 // indirect
	github.com/go-chi/chi/v5 v5.0.7 // indirect
	github.com/justinas/nosurf v1.1.1 // indirect
)
